6.156588859558105753e+01
2.634011791229248090e+01
1.793390731811523509e+01
6.301545458221435183e+02
1.545080392837524386e+01
1.440966718673706026e+01
1.498501869201660242e+01
1.283126676559448320e+01
1.214924777984619197e+01
1.136938434600830128e+01
1.101847003936767599e+01
1.160804309844970739e+01
1.037740428924560554e+01
9.923633518218993643e+00
1.024358314514160107e+01
9.579434146881103729e+00
9.517438335418701101e+00
9.810243549346923331e+00
9.335052146911621662e+00
9.068958311080931978e+00
9.600375156402588317e+00
9.004150705337524485e+00
8.678459453582764382e+00
8.979228315353394052e+00
8.890801401138306304e+00
8.778377885818480664e+00
8.724537754058838246e+00
8.650578422546386648e+00
8.469080448150634766e+00
8.359263305664063282e+00
8.576478958129882812e+00
8.416505355834960511e+00
8.296553087234496360e+00
8.450646286010742969e+00
8.448740444183350462e+00
8.381612968444823508e+00
8.235912609100342507e+00
8.036500997543335245e+00
8.137877731323241548e+00
8.186558990478514986e+00
8.254455051422119993e+00
7.985180320739746485e+00
7.892672319412231019e+00
7.944896984100341619e+00
8.004281930923461630e+00
7.899555578231811204e+00
7.873927173614501562e+00
7.883034496307373296e+00
7.813875598907470632e+00
7.923219089508056534e+00
